Log file successfully created.
initialize() successful.
0: 0.000000 (1.000000, 0.000000)
1: 0.006283 (0.999980, 0.006283)
2: 0.012566 (0.999921, 0.012566)
3: 0.018850 (0.999822, 0.018848)
4: 0.025133 (0.999684, 0.025130)
5: 0.031416 (0.999507, 0.031411)
6: 0.037699 (0.999289, 0.037690)
7: 0.043982 (0.999033, 0.043968)
8: 0.050265 (0.998737, 0.050244)
9: 0.056549 (0.998402, 0.056519)
10: 0.062832 (0.998027, 0.062791)
11: 0.069115 (0.997613, 0.069060)
12: 0.075398 (0.997159, 0.075327)
13: 0.081681 (0.996666, 0.081591)
14: 0.087965 (0.996134, 0.087851)
15: 0.094248 (0.995562, 0.094108)
16: 0.100531 (0.994951, 0.100362)
17: 0.106814 (0.994301, 0.106611)
18: 0.113097 (0.993611, 0.112856)
19: 0.119381 (0.992883, 0.119097)
20: 0.125664 (0.992115, 0.125333)
21: 0.131947 (0.991308, 0.131564)
22: 0.138230 (0.990461, 0.137790)
23: 0.144513 (0.989576, 0.144011)
24: 0.150796 (0.988652, 0.150226)
25: 0.157080 (0.987688, 0.156434)
26: 0.163363 (0.986686, 0.162637)
27: 0.169646 (0.985645, 0.168833)
28: 0.175929 (0.984564, 0.175023)
29: 0.182212 (0.983445, 0.181206)
30: 0.188496 (0.982287, 0.187381)
31: 0.194779 (0.981091, 0.193549)
32: 0.201062 (0.979855, 0.199710)
33: 0.207345 (0.978581, 0.205863)
34: 0.213628 (0.977268, 0.212007)
35: 0.219911 (0.975917, 0.218143)
36: 0.226195 (0.974527, 0.224271)
37: 0.232478 (0.973099, 0.230389)
38: 0.238761 (0.971632, 0.236499)
39: 0.245044 (0.970127, 0.242599)
40: 0.251327 (0.968583, 0.248690)
41: 0.257611 (0.967001, 0.254771)
42: 0.263894 (0.965382, 0.260842)
43: 0.270177 (0.963724, 0.266902)
44: 0.276460 (0.962028, 0.272952)
45: 0.282743 (0.960294, 0.278991)
46: 0.289027 (0.958522, 0.285019)
47: 0.295310 (0.956712, 0.291036)
48: 0.301593 (0.954865, 0.297042)
49: 0.307876 (0.952979, 0.303035)
50: 0.314159 (0.951057, 0.309017)
51: 0.320442 (0.949096, 0.314986)
52: 0.326726 (0.947098, 0.320944)
53: 0.333009 (0.945063, 0.326888)
54: 0.339292 (0.942991, 0.332820)
55: 0.345575 (0.940881, 0.338738)
56: 0.351858 (0.938734, 0.344643)
57: 0.358142 (0.936550, 0.350534)
58: 0.364425 (0.934329, 0.356412)
59: 0.370708 (0.932071, 0.362275)
60: 0.376991 (0.929776, 0.368125)
61: 0.383274 (0.927445, 0.373959)
62: 0.389557 (0.925077, 0.379779)
63: 0.395841 (0.922673, 0.385584)
64: 0.402124 (0.920232, 0.391374)
65: 0.408407 (0.917755, 0.397148)
66: 0.414690 (0.915241, 0.402906)
67: 0.420973 (0.912692, 0.408649)
68: 0.427257 (0.910106, 0.414376)
69: 0.433540 (0.907484, 0.420086)
70: 0.439823 (0.904827, 0.425779)
71: 0.446106 (0.902134, 0.431456)
72: 0.452389 (0.899405, 0.437116)
73: 0.458673 (0.896641, 0.442758)
74: 0.464956 (0.893841, 0.448383)
75: 0.471239 (0.891007, 0.453991)
76: 0.477522 (0.888136, 0.459580)
77: 0.483805 (0.885231, 0.465151)
78: 0.490088 (0.882291, 0.470704)
79: 0.496372 (0.879316, 0.476238)
80: 0.502655 (0.876307, 0.481754)
81: 0.508938 (0.873262, 0.487250)
82: 0.515221 (0.870184, 0.492727)
83: 0.521504 (0.867071, 0.498185)
84: 0.527788 (0.863923, 0.503623)
85: 0.534071 (0.860742, 0.509041)
86: 0.540354 (0.857527, 0.514440)
87: 0.546637 (0.854277, 0.519817)
88: 0.552920 (0.850994, 0.525175)
89: 0.559204 (0.847678, 0.530511)
90: 0.565487 (0.844328, 0.535827)
91: 0.571770 (0.840945, 0.541121)
92: 0.578053 (0.837528, 0.546394)
93: 0.584336 (0.834078, 0.551646)
94: 0.590619 (0.830596, 0.556876)
95: 0.596903 (0.827081, 0.562083)
96: 0.603186 (0.823533, 0.567269)
97: 0.609469 (0.819952, 0.572432)
98: 0.615752 (0.816339, 0.577573)
99: 0.622035 (0.812694, 0.582690)
100: 0.628319 (0.809017, 0.587785)
101: 0.634602 (0.805308, 0.592857)
102: 0.640885 (0.801567, 0.597905)
103: 0.647168 (0.797794, 0.602930)
104: 0.653451 (0.793990, 0.607930)
105: 0.659734 (0.790155, 0.612907)
106: 0.666018 (0.786288, 0.617860)
107: 0.672301 (0.782391, 0.622788)
108: 0.678584 (0.778462, 0.627691)
109: 0.684867 (0.774503, 0.632570)
110: 0.691150 (0.770513, 0.637424)
111: 0.697434 (0.766493, 0.642253)
112: 0.703717 (0.762443, 0.647056)
113: 0.710000 (0.758362, 0.651834)
114: 0.716283 (0.754251, 0.656586)
115: 0.722566 (0.750111, 0.661312)
116: 0.728849 (0.745941, 0.666012)
117: 0.735133 (0.741742, 0.670686)
118: 0.741416 (0.737513, 0.675333)
119: 0.747699 (0.733255, 0.679953)
120: 0.753982 (0.728969, 0.684547)
121: 0.760265 (0.724653, 0.689114)
122: 0.766549 (0.720309, 0.693653)
123: 0.772832 (0.715936, 0.698165)
124: 0.779115 (0.711536, 0.702650)
125: 0.785398 (0.707107, 0.707107)
126: 0.791681 (0.702650, 0.711536)
127: 0.797965 (0.698165, 0.715936)
128: 0.804248 (0.693653, 0.720309)
129: 0.810531 (0.689114, 0.724653)
130: 0.816814 (0.684547, 0.728969)
131: 0.823097 (0.679953, 0.733255)
132: 0.829380 (0.675333, 0.737513)
133: 0.835664 (0.670686, 0.741742)
134: 0.841947 (0.666012, 0.745941)
135: 0.848230 (0.661312, 0.750111)
136: 0.854513 (0.656586, 0.754251)
137: 0.860796 (0.651834, 0.758362)
138: 0.867080 (0.647056, 0.762443)
139: 0.873363 (0.642253, 0.766493)
140: 0.879646 (0.637424, 0.770513)
141: 0.885929 (0.632570, 0.774503)
142: 0.892212 (0.627691, 0.778462)
143: 0.898495 (0.622788, 0.782391)
144: 0.904779 (0.617860, 0.786288)
145: 0.911062 (0.612907, 0.790155)
146: 0.917345 (0.607930, 0.793990)
147: 0.923628 (0.602930, 0.797794)
148: 0.929911 (0.597905, 0.801567)
149: 0.936195 (0.592857, 0.805308)
150: 0.942478 (0.587785, 0.809017)
151: 0.948761 (0.582690, 0.812694)
152: 0.955044 (0.577573, 0.816339)
153: 0.961327 (0.572432, 0.819952)
154: 0.967611 (0.567269, 0.823533)
155: 0.973894 (0.562083, 0.827081)
156: 0.980177 (0.556876, 0.830596)
157: 0.986460 (0.551646, 0.834078)
158: 0.992743 (0.546394, 0.837528)
159: 0.999026 (0.541121, 0.840945)
160: 1.005310 (0.535827, 0.844328)
161: 1.011593 (0.530511, 0.847678)
162: 1.017876 (0.525175, 0.850994)
163: 1.024159 (0.519817, 0.854277)
164: 1.030442 (0.514440, 0.857527)
165: 1.036726 (0.509041, 0.860742)
166: 1.043009 (0.503623, 0.863923)
167: 1.049292 (0.498185, 0.867071)
168: 1.055575 (0.492727, 0.870184)
169: 1.061858 (0.487250, 0.873262)
170: 1.068141 (0.481754, 0.876307)
171: 1.074425 (0.476238, 0.879316)
172: 1.080708 (0.470704, 0.882291)
173: 1.086991 (0.465151, 0.885231)
174: 1.093274 (0.459580, 0.888136)
175: 1.099557 (0.453991, 0.891007)
176: 1.105841 (0.448383, 0.893841)
177: 1.112124 (0.442758, 0.896641)
178: 1.118407 (0.437116, 0.899405)
179: 1.124690 (0.431456, 0.902134)
180: 1.130973 (0.425779, 0.904827)
181: 1.137257 (0.420086, 0.907484)
182: 1.143540 (0.414376, 0.910106)
183: 1.149823 (0.408649, 0.912692)
184: 1.156106 (0.402906, 0.915241)
185: 1.162389 (0.397148, 0.917755)
186: 1.168672 (0.391374, 0.920232)
187: 1.174956 (0.385584, 0.922673)
188: 1.181239 (0.379779, 0.925077)
189: 1.187522 (0.373959, 0.927445)
190: 1.193805 (0.368125, 0.929776)
191: 1.200088 (0.362275, 0.932071)
192: 1.206372 (0.356412, 0.934329)
193: 1.212655 (0.350534, 0.936550)
194: 1.218938 (0.344643, 0.938734)
195: 1.225221 (0.338738, 0.940881)
196: 1.231504 (0.332820, 0.942991)
197: 1.237787 (0.326888, 0.945063)
198: 1.244071 (0.320944, 0.947098)
199: 1.250354 (0.314986, 0.949096)
200: 1.256637 (0.309017, 0.951057)
201: 1.262920 (0.303035, 0.952979)
202: 1.269203 (0.297042, 0.954865)
203: 1.275487 (0.291036, 0.956712)
204: 1.281770 (0.285019, 0.958522)
205: 1.288053 (0.278991, 0.960294)
206: 1.294336 (0.272952, 0.962028)
207: 1.300619 (0.266902, 0.963724)
208: 1.306903 (0.260842, 0.965382)
209: 1.313186 (0.254771, 0.967001)
210: 1.319469 (0.248690, 0.968583)
211: 1.325752 (0.242599, 0.970127)
212: 1.332035 (0.236499, 0.971632)
213: 1.338318 (0.230389, 0.973099)
214: 1.344602 (0.224271, 0.974527)
215: 1.350885 (0.218143, 0.975917)
216: 1.357168 (0.212007, 0.977268)
217: 1.363451 (0.205863, 0.978581)
218: 1.369734 (0.199710, 0.979855)
219: 1.376018 (0.193549, 0.981090)
220: 1.382301 (0.187381, 0.982287)
221: 1.388584 (0.181206, 0.983445)
222: 1.394867 (0.175023, 0.984564)
223: 1.401150 (0.168833, 0.985645)
224: 1.407434 (0.162637, 0.986686)
225: 1.413717 (0.156434, 0.987688)
226: 1.420000 (0.150226, 0.988652)
227: 1.426283 (0.144011, 0.989576)
228: 1.432566 (0.137790, 0.990461)
229: 1.438849 (0.131564, 0.991308)
230: 1.445133 (0.125333, 0.992115)
231: 1.451416 (0.119097, 0.992883)
232: 1.457699 (0.112856, 0.993611)
233: 1.463982 (0.106611, 0.994301)
234: 1.470265 (0.100362, 0.994951)
235: 1.476549 (0.094108, 0.995562)
236: 1.482832 (0.087851, 0.996134)
237: 1.489115 (0.081591, 0.996666)
238: 1.495398 (0.075327, 0.997159)
239: 1.501681 (0.069060, 0.997613)
240: 1.507964 (0.062790, 0.998027)
241: 1.514248 (0.056519, 0.998402)
242: 1.520531 (0.050244, 0.998737)
243: 1.526814 (0.043968, 0.999033)
244: 1.533097 (0.037690, 0.999289)
245: 1.539380 (0.031411, 0.999507)
246: 1.545664 (0.025130, 0.999684)
247: 1.551947 (0.018848, 0.999822)
248: 1.558230 (0.012566, 0.999921)
249: 1.564513 (0.006283, 0.999980)
250: 1.570796 (-0.000000, 1.000000)
251: 1.577080 (-0.006283, 0.999980)
252: 1.583363 (-0.012566, 0.999921)
253: 1.589646 (-0.018848, 0.999822)
254: 1.595929 (-0.025130, 0.999684)
255: 1.602212 (-0.031411, 0.999507)
256: 1.608495 (-0.037690, 0.999289)
257: 1.614779 (-0.043968, 0.999033)
258: 1.621062 (-0.050244, 0.998737)
259: 1.627345 (-0.056519, 0.998402)
260: 1.633628 (-0.062790, 0.998027)
261: 1.639911 (-0.069060, 0.997612)
262: 1.646195 (-0.075327, 0.997159)
263: 1.652478 (-0.081591, 0.996666)
264: 1.658761 (-0.087851, 0.996134)
265: 1.665044 (-0.094108, 0.995562)
266: 1.671327 (-0.100362, 0.994951)
267: 1.677611 (-0.106611, 0.994301)
268: 1.683894 (-0.112856, 0.993611)
269: 1.690177 (-0.119097, 0.992883)
270: 1.696460 (-0.125333, 0.992115)
271: 1.702743 (-0.131564, 0.991308)
272: 1.709026 (-0.137790, 0.990461)
273: 1.715310 (-0.144011, 0.989576)
274: 1.721593 (-0.150226, 0.988652)
275: 1.727876 (-0.156434, 0.987688)
276: 1.734159 (-0.162637, 0.986686)
277: 1.740442 (-0.168833, 0.985645)
278: 1.746726 (-0.175023, 0.984564)
279: 1.753009 (-0.181206, 0.983445)
280: 1.759292 (-0.187381, 0.982287)
281: 1.765575 (-0.193549, 0.981091)
282: 1.771858 (-0.199710, 0.979855)
283: 1.778141 (-0.205863, 0.978581)
284: 1.784425 (-0.212007, 0.977268)
285: 1.790708 (-0.218143, 0.975917)
286: 1.796991 (-0.224271, 0.974527)
287: 1.803274 (-0.230389, 0.973099)
288: 1.809557 (-0.236499, 0.971632)
289: 1.815841 (-0.242599, 0.970127)
290: 1.822124 (-0.248690, 0.968583)
291: 1.828407 (-0.254771, 0.967001)
292: 1.834690 (-0.260841, 0.965382)
293: 1.840973 (-0.266902, 0.963724)
294: 1.847256 (-0.272952, 0.962028)
295: 1.853540 (-0.278991, 0.960294)
296: 1.859823 (-0.285019, 0.958522)
297: 1.866106 (-0.291036, 0.956712)
298: 1.872389 (-0.297042, 0.954865)
299: 1.878672 (-0.303035, 0.952979)
300: 1.884956 (-0.309017, 0.951056)
301: 1.891239 (-0.314987, 0.949096)
302: 1.897522 (-0.320944, 0.947098)
303: 1.903805 (-0.326888, 0.945063)
304: 1.910088 (-0.332820, 0.942991)
305: 1.916371 (-0.338738, 0.940881)
306: 1.922655 (-0.344643, 0.938734)
307: 1.928938 (-0.350534, 0.936550)
308: 1.935221 (-0.356412, 0.934329)
309: 1.941504 (-0.362275, 0.932071)
310: 1.947787 (-0.368125, 0.929776)
311: 1.954071 (-0.373959, 0.927445)
312: 1.960354 (-0.379779, 0.925077)
313: 1.966637 (-0.385584, 0.922673)
314: 1.972920 (-0.391374, 0.920232)
315: 1.979203 (-0.397148, 0.917755)
316: 1.985487 (-0.402906, 0.915241)
317: 1.991770 (-0.408649, 0.912692)
318: 1.998053 (-0.414376, 0.910106)
319: 2.004336 (-0.420086, 0.907484)
320: 2.010619 (-0.425779, 0.904827)
321: 2.016902 (-0.431456, 0.902134)
322: 2.023186 (-0.437116, 0.899405)
323: 2.029469 (-0.442758, 0.896641)
324: 2.035752 (-0.448383, 0.893841)
325: 2.042035 (-0.453991, 0.891006)
326: 2.048318 (-0.459580, 0.888136)
327: 2.054602 (-0.465151, 0.885231)
328: 2.060885 (-0.470704, 0.882291)
329: 2.067168 (-0.476238, 0.879316)
330: 2.073451 (-0.481754, 0.876307)
331: 2.079734 (-0.487250, 0.873262)
332: 2.086018 (-0.492727, 0.870184)
333: 2.092301 (-0.498185, 0.867071)
334: 2.098584 (-0.503623, 0.863923)
335: 2.104867 (-0.509041, 0.860742)
336: 2.111150 (-0.514440, 0.857527)
337: 2.117434 (-0.519817, 0.854277)
338: 2.123717 (-0.525175, 0.850995)
339: 2.130000 (-0.530511, 0.847678)
340: 2.136283 (-0.535827, 0.844328)
341: 2.142566 (-0.541121, 0.840945)
342: 2.148849 (-0.546394, 0.837528)
343: 2.155133 (-0.551646, 0.834078)
344: 2.161416 (-0.556876, 0.830596)
345: 2.167699 (-0.562083, 0.827081)
346: 2.173982 (-0.567269, 0.823533)
347: 2.180265 (-0.572432, 0.819952)
348: 2.186548 (-0.577573, 0.816339)
349: 2.192832 (-0.582691, 0.812694)
350: 2.199115 (-0.587785, 0.809017)
351: 2.205398 (-0.592857, 0.805308)
352: 2.211681 (-0.597905, 0.801567)
353: 2.217964 (-0.602930, 0.797794)
354: 2.224248 (-0.607930, 0.793990)
355: 2.230531 (-0.612907, 0.790155)
356: 2.236814 (-0.617860, 0.786288)
357: 2.243097 (-0.622788, 0.782391)
358: 2.249380 (-0.627691, 0.778462)
359: 2.255664 (-0.632570, 0.774503)
360: 2.261947 (-0.637424, 0.770513)
361: 2.268230 (-0.642253, 0.766493)
362: 2.274513 (-0.647056, 0.762443)
363: 2.280796 (-0.651834, 0.758362)
364: 2.287079 (-0.656586, 0.754251)
365: 2.293363 (-0.661312, 0.750111)
366: 2.299646 (-0.666012, 0.745941)
367: 2.305929 (-0.670686, 0.741742)
368: 2.312212 (-0.675333, 0.737513)
369: 2.318495 (-0.679953, 0.733255)
370: 2.324779 (-0.684547, 0.728969)
371: 2.331062 (-0.689114, 0.724653)
372: 2.337345 (-0.693653, 0.720309)
373: 2.343628 (-0.698165, 0.715936)
374: 2.349911 (-0.702650, 0.711536)
375: 2.356194 (-0.707107, 0.707107)
376: 2.362478 (-0.711536, 0.702650)
377: 2.368761 (-0.715936, 0.698165)
378: 2.375044 (-0.720309, 0.693653)
379: 2.381327 (-0.724653, 0.689114)
380: 2.387610 (-0.728969, 0.684547)
381: 2.393894 (-0.733255, 0.679953)
382: 2.400177 (-0.737513, 0.675333)
383: 2.406460 (-0.741742, 0.670686)
384: 2.412743 (-0.745941, 0.666012)
385: 2.419026 (-0.750111, 0.661312)
386: 2.425309 (-0.754251, 0.656586)
387: 2.431593 (-0.758362, 0.651834)
388: 2.437876 (-0.762443, 0.647056)
389: 2.444159 (-0.766493, 0.642253)
390: 2.450442 (-0.770513, 0.637424)
391: 2.456725 (-0.774503, 0.632570)
392: 2.463009 (-0.778462, 0.627691)
393: 2.469292 (-0.782391, 0.622788)
394: 2.475575 (-0.786288, 0.617860)
395: 2.481858 (-0.790155, 0.612907)
396: 2.488141 (-0.793990, 0.607930)
397: 2.494425 (-0.797794, 0.602930)
398: 2.500708 (-0.801567, 0.597905)
399: 2.506991 (-0.805308, 0.592857)
400: 2.513274 (-0.809017, 0.587785)
401: 2.519557 (-0.812694, 0.582691)
402: 2.525841 (-0.816339, 0.577573)
403: 2.532124 (-0.819952, 0.572432)
404: 2.538407 (-0.823533, 0.567269)
405: 2.544690 (-0.827081, 0.562083)
406: 2.550973 (-0.830596, 0.556876)
407: 2.557256 (-0.834078, 0.551646)
408: 2.563540 (-0.837528, 0.546394)
409: 2.569823 (-0.840945, 0.541121)
410: 2.576106 (-0.844328, 0.535827)
411: 2.582389 (-0.847678, 0.530511)
412: 2.588672 (-0.850995, 0.525175)
413: 2.594955 (-0.854277, 0.519817)
414: 2.601239 (-0.857527, 0.514440)
415: 2.607522 (-0.860742, 0.509041)
416: 2.613805 (-0.863923, 0.503623)
417: 2.620088 (-0.867071, 0.498185)
418: 2.626371 (-0.870184, 0.492727)
419: 2.632655 (-0.873262, 0.487250)
420: 2.638938 (-0.876307, 0.481754)
421: 2.645221 (-0.879316, 0.476238)
422: 2.651504 (-0.882291, 0.470704)
423: 2.657787 (-0.885231, 0.465151)
424: 2.664071 (-0.888136, 0.459580)
425: 2.670354 (-0.891006, 0.453991)
426: 2.676637 (-0.893841, 0.448383)
427: 2.682920 (-0.896641, 0.442758)
428: 2.689203 (-0.899405, 0.437116)
429: 2.695487 (-0.902134, 0.431456)
430: 2.701770 (-0.904827, 0.425779)
431: 2.708053 (-0.907484, 0.420086)
432: 2.714336 (-0.910106, 0.414375)
433: 2.720619 (-0.912692, 0.408649)
434: 2.726902 (-0.915241, 0.402906)
435: 2.733186 (-0.917755, 0.397148)
436: 2.739469 (-0.920232, 0.391374)
437: 2.745752 (-0.922673, 0.385584)
438: 2.752035 (-0.925077, 0.379779)
439: 2.758318 (-0.927445, 0.373959)
440: 2.764601 (-0.929776, 0.368125)
441: 2.770885 (-0.932071, 0.362275)
442: 2.777168 (-0.934329, 0.356412)
443: 2.783451 (-0.936550, 0.350534)
444: 2.789734 (-0.938734, 0.344643)
445: 2.796017 (-0.940881, 0.338738)
446: 2.802301 (-0.942991, 0.332819)
447: 2.808584 (-0.945063, 0.326888)
448: 2.814867 (-0.947098, 0.320944)
449: 2.821150 (-0.949096, 0.314986)
450: 2.827433 (-0.951056, 0.309017)
451: 2.833717 (-0.952979, 0.303035)
452: 2.840000 (-0.954865, 0.297042)
453: 2.846283 (-0.956712, 0.291036)
454: 2.852566 (-0.958522, 0.285019)
455: 2.858849 (-0.960294, 0.278991)
456: 2.865133 (-0.962028, 0.272952)
457: 2.871416 (-0.963724, 0.266902)
458: 2.877699 (-0.965382, 0.260841)
459: 2.883982 (-0.967001, 0.254771)
460: 2.890265 (-0.968583, 0.248690)
461: 2.896549 (-0.970127, 0.242599)
462: 2.902832 (-0.971632, 0.236499)
463: 2.909115 (-0.973099, 0.230389)
464: 2.915398 (-0.974527, 0.224271)
465: 2.921681 (-0.975917, 0.218143)
466: 2.927964 (-0.977268, 0.212007)
467: 2.934247 (-0.978581, 0.205863)
468: 2.940531 (-0.979855, 0.199710)
469: 2.946814 (-0.981090, 0.193550)
470: 2.953097 (-0.982287, 0.187381)
471: 2.959380 (-0.983445, 0.181206)
472: 2.965663 (-0.984564, 0.175023)
473: 2.971947 (-0.985645, 0.168833)
474: 2.978230 (-0.986686, 0.162637)
475: 2.984513 (-0.987688, 0.156434)
476: 2.990796 (-0.988652, 0.150226)
477: 2.997079 (-0.989576, 0.144011)
478: 3.003363 (-0.990461, 0.137790)
479: 3.009646 (-0.991308, 0.131564)
480: 3.015929 (-0.992115, 0.125333)
481: 3.022212 (-0.992883, 0.119097)
482: 3.028495 (-0.993611, 0.112856)
483: 3.034779 (-0.994301, 0.106611)
484: 3.041062 (-0.994951, 0.100362)
485: 3.047345 (-0.995562, 0.094108)
486: 3.053628 (-0.996134, 0.087851)
487: 3.059911 (-0.996666, 0.081591)
488: 3.066195 (-0.997159, 0.075327)
489: 3.072478 (-0.997612, 0.069060)
490: 3.078761 (-0.998027, 0.062790)
491: 3.085044 (-0.998402, 0.056519)
492: 3.091327 (-0.998737, 0.050244)
493: 3.097610 (-0.999033, 0.043968)
494: 3.103894 (-0.999289, 0.037690)
495: 3.110177 (-0.999507, 0.031411)
496: 3.116460 (-0.999684, 0.025130)
497: 3.122743 (-0.999822, 0.018848)
498: 3.129026 (-0.999921, 0.012566)
499: 3.135309 (-0.999980, 0.006283)
500: 3.141593 (-1.000000, -0.000000)
501: 3.147876 (-0.999980, -0.006283)
502: 3.154159 (-0.999921, -0.012566)
503: 3.160442 (-0.999822, -0.018848)
504: 3.166725 (-0.999684, -0.025130)
505: 3.173009 (-0.999507, -0.031411)
506: 3.179292 (-0.999289, -0.037690)
507: 3.185575 (-0.999033, -0.043968)
508: 3.191858 (-0.998737, -0.050244)
509: 3.198141 (-0.998402, -0.056519)
510: 3.204425 (-0.998027, -0.062791)
511: 3.210708 (-0.997613, -0.069060)
512: 3.216991 (-0.997159, -0.075327)
513: 3.223274 (-0.996666, -0.081591)
514: 3.229557 (-0.996134, -0.087851)
515: 3.235840 (-0.995562, -0.094108)
516: 3.242124 (-0.994951, -0.100362)
517: 3.248407 (-0.994301, -0.106611)
518: 3.254690 (-0.993611, -0.112856)
519: 3.260973 (-0.992883, -0.119097)
520: 3.267256 (-0.992115, -0.125333)
521: 3.273540 (-0.991308, -0.131564)
522: 3.279823 (-0.990461, -0.137790)
523: 3.286106 (-0.989576, -0.144011)
524: 3.292389 (-0.988652, -0.150226)
525: 3.298672 (-0.987688, -0.156434)
526: 3.304955 (-0.986686, -0.162637)
527: 3.311239 (-0.985645, -0.168834)
528: 3.317522 (-0.984564, -0.175023)
529: 3.323805 (-0.983445, -0.181206)
530: 3.330088 (-0.982287, -0.187381)
531: 3.336371 (-0.981090, -0.193549)
532: 3.342654 (-0.979855, -0.199710)
533: 3.348938 (-0.978581, -0.205863)
534: 3.355221 (-0.977268, -0.212007)
535: 3.361504 (-0.975917, -0.218143)
536: 3.367787 (-0.974527, -0.224271)
537: 3.374070 (-0.973099, -0.230389)
538: 3.380354 (-0.971632, -0.236499)
539: 3.386637 (-0.970127, -0.242599)
540: 3.392920 (-0.968583, -0.248690)
541: 3.399203 (-0.967001, -0.254771)
542: 3.405486 (-0.965382, -0.260841)
543: 3.411770 (-0.963724, -0.266902)
544: 3.418053 (-0.962028, -0.272952)
545: 3.424336 (-0.960294, -0.278991)
546: 3.430619 (-0.958522, -0.285019)
547: 3.436902 (-0.956712, -0.291036)
548: 3.443186 (-0.954865, -0.297042)
549: 3.449469 (-0.952979, -0.303035)
550: 3.455752 (-0.951057, -0.309017)
551: 3.462035 (-0.949096, -0.314987)
552: 3.468318 (-0.947098, -0.320944)
553: 3.474602 (-0.945063, -0.326888)
554: 3.480885 (-0.942991, -0.332819)
555: 3.487168 (-0.940881, -0.338738)
556: 3.493451 (-0.938734, -0.344643)
557: 3.499734 (-0.936550, -0.350534)
558: 3.506017 (-0.934329, -0.356412)
559: 3.512300 (-0.932071, -0.362275)
560: 3.518584 (-0.929776, -0.368125)
561: 3.524867 (-0.927445, -0.373959)
562: 3.531150 (-0.925077, -0.379779)
563: 3.537433 (-0.922673, -0.385584)
564: 3.543716 (-0.920232, -0.391374)
565: 3.550000 (-0.917755, -0.397148)
566: 3.556283 (-0.915241, -0.402907)
567: 3.562566 (-0.912692, -0.408649)
568: 3.568849 (-0.910106, -0.414376)
569: 3.575132 (-0.907484, -0.420086)
570: 3.581416 (-0.904827, -0.425779)
571: 3.587699 (-0.902134, -0.431456)
572: 3.593982 (-0.899405, -0.437116)
573: 3.600265 (-0.896641, -0.442758)
574: 3.606548 (-0.893841, -0.448383)
575: 3.612832 (-0.891007, -0.453991)
576: 3.619115 (-0.888137, -0.459580)
577: 3.625398 (-0.885231, -0.465151)
578: 3.631681 (-0.882291, -0.470704)
579: 3.637964 (-0.879316, -0.476238)
580: 3.644248 (-0.876307, -0.481754)
581: 3.650531 (-0.873263, -0.487250)
582: 3.656814 (-0.870184, -0.492727)
583: 3.663097 (-0.867071, -0.498185)
584: 3.669380 (-0.863923, -0.503623)
585: 3.675663 (-0.860742, -0.509041)
586: 3.681947 (-0.857527, -0.514439)
587: 3.688230 (-0.854277, -0.519817)
588: 3.694513 (-0.850995, -0.525175)
589: 3.700796 (-0.847678, -0.530511)
590: 3.707079 (-0.844328, -0.535827)
591: 3.713362 (-0.840945, -0.541121)
592: 3.719646 (-0.837528, -0.546394)
593: 3.725929 (-0.834078, -0.551646)
594: 3.732212 (-0.830596, -0.556876)
595: 3.738495 (-0.827081, -0.562083)
596: 3.744778 (-0.823533, -0.567269)
597: 3.751062 (-0.819952, -0.572432)
598: 3.757345 (-0.816339, -0.577573)
599: 3.763628 (-0.812694, -0.582690)
600: 3.769911 (-0.809017, -0.587785)
601: 3.776194 (-0.805308, -0.592857)
602: 3.782478 (-0.801567, -0.597905)
603: 3.788761 (-0.797794, -0.602929)
604: 3.795044 (-0.793990, -0.607930)
605: 3.801327 (-0.790155, -0.612907)
606: 3.807610 (-0.786288, -0.617860)
607: 3.813894 (-0.782391, -0.622788)
608: 3.820177 (-0.778462, -0.627691)
609: 3.826460 (-0.774503, -0.632570)
610: 3.832743 (-0.770513, -0.637424)
611: 3.839026 (-0.766493, -0.642253)
612: 3.845309 (-0.762442, -0.647056)
613: 3.851593 (-0.758362, -0.651834)
614: 3.857876 (-0.754251, -0.656586)
615: 3.864159 (-0.750111, -0.661312)
616: 3.870442 (-0.745941, -0.666012)
617: 3.876725 (-0.741742, -0.670686)
618: 3.883008 (-0.737513, -0.675333)
619: 3.889292 (-0.733255, -0.679953)
620: 3.895575 (-0.728969, -0.684547)
621: 3.901858 (-0.724653, -0.689114)
622: 3.908141 (-0.720309, -0.693653)
623: 3.914424 (-0.715936, -0.698165)
624: 3.920708 (-0.711536, -0.702650)
625: 3.926991 (-0.707107, -0.707107)
626: 3.933274 (-0.702650, -0.711536)
627: 3.939557 (-0.698165, -0.715936)
628: 3.945840 (-0.693653, -0.720309)
629: 3.952124 (-0.689114, -0.724653)
630: 3.958407 (-0.684547, -0.728969)
631: 3.964690 (-0.679953, -0.733255)
632: 3.970973 (-0.675333, -0.737513)
633: 3.977256 (-0.670686, -0.741742)
634: 3.983540 (-0.666012, -0.745941)
635: 3.989823 (-0.661312, -0.750111)
636: 3.996106 (-0.656586, -0.754251)
637: 4.002389 (-0.651834, -0.758362)
638: 4.008672 (-0.647056, -0.762443)
639: 4.014956 (-0.642253, -0.766493)
640: 4.021239 (-0.637424, -0.770513)
641: 4.027522 (-0.632570, -0.774503)
642: 4.033805 (-0.627691, -0.778462)
643: 4.040088 (-0.622788, -0.782391)
644: 4.046371 (-0.617860, -0.786288)
645: 4.052655 (-0.612907, -0.790155)
646: 4.058938 (-0.607930, -0.793990)
647: 4.065221 (-0.602930, -0.797794)
648: 4.071504 (-0.597905, -0.801567)
649: 4.077787 (-0.592857, -0.805308)
650: 4.084071 (-0.587785, -0.809017)
651: 4.090353 (-0.582691, -0.812694)
652: 4.096637 (-0.577573, -0.816339)
653: 4.102920 (-0.572432, -0.819952)
654: 4.109203 (-0.567269, -0.823533)
655: 4.115486 (-0.562084, -0.827080)
656: 4.121769 (-0.556876, -0.830596)
657: 4.128053 (-0.551646, -0.834078)
658: 4.134336 (-0.546394, -0.837528)
659: 4.140619 (-0.541121, -0.840945)
660: 4.146902 (-0.535827, -0.844328)
661: 4.153185 (-0.530511, -0.847678)
662: 4.159469 (-0.525175, -0.850994)
663: 4.165752 (-0.519817, -0.854277)
664: 4.172035 (-0.514439, -0.857527)
665: 4.178318 (-0.509042, -0.860742)
666: 4.184601 (-0.503623, -0.863923)
667: 4.190885 (-0.498185, -0.867071)
668: 4.197168 (-0.492727, -0.870184)
669: 4.203451 (-0.487250, -0.873263)
670: 4.209734 (-0.481754, -0.876307)
671: 4.216017 (-0.476238, -0.879316)
672: 4.222301 (-0.470704, -0.882291)
673: 4.228584 (-0.465151, -0.885231)
674: 4.234867 (-0.459580, -0.888137)
675: 4.241150 (-0.453991, -0.891006)
676: 4.247433 (-0.448383, -0.893841)
677: 4.253716 (-0.442758, -0.896641)
678: 4.260000 (-0.437116, -0.899405)
679: 4.266283 (-0.431456, -0.902134)
680: 4.272566 (-0.425779, -0.904827)
681: 4.278849 (-0.420086, -0.907484)
682: 4.285132 (-0.414376, -0.910106)
683: 4.291416 (-0.408649, -0.912692)
684: 4.297699 (-0.402906, -0.915241)
685: 4.303982 (-0.397148, -0.917755)
686: 4.310265 (-0.391374, -0.920232)
687: 4.316548 (-0.385584, -0.922673)
688: 4.322832 (-0.379779, -0.925077)
689: 4.329115 (-0.373959, -0.927445)
690: 4.335398 (-0.368125, -0.929776)
691: 4.341681 (-0.362275, -0.932071)
692: 4.347964 (-0.356412, -0.934329)
693: 4.354248 (-0.350534, -0.936550)
694: 4.360530 (-0.344643, -0.938734)
695: 4.366814 (-0.338738, -0.940881)
696: 4.373097 (-0.332820, -0.942991)
697: 4.379380 (-0.326888, -0.945063)
698: 4.385664 (-0.320943, -0.947098)
699: 4.391946 (-0.314987, -0.949096)
700: 4.398230 (-0.309017, -0.951056)
701: 4.404513 (-0.303035, -0.952979)
702: 4.410796 (-0.297042, -0.954865)
703: 4.417079 (-0.291036, -0.956712)
704: 4.423362 (-0.285019, -0.958522)
705: 4.429646 (-0.278991, -0.960294)
706: 4.435929 (-0.272952, -0.962028)
707: 4.442212 (-0.266902, -0.963724)
708: 4.448495 (-0.260841, -0.965382)
709: 4.454778 (-0.254771, -0.967001)
710: 4.461061 (-0.248690, -0.968583)
711: 4.467345 (-0.242599, -0.970127)
712: 4.473628 (-0.236499, -0.971632)
713: 4.479911 (-0.230389, -0.973099)
714: 4.486194 (-0.224271, -0.974527)
715: 4.492477 (-0.218143, -0.975917)
716: 4.498761 (-0.212007, -0.977268)
717: 4.505044 (-0.205862, -0.978581)
718: 4.511327 (-0.199710, -0.979855)
719: 4.517610 (-0.193550, -0.981090)
720: 4.523893 (-0.187381, -0.982287)
721: 4.530177 (-0.181206, -0.983445)
722: 4.536460 (-0.175023, -0.984564)
723: 4.542743 (-0.168833, -0.985645)
724: 4.549026 (-0.162637, -0.986686)
725: 4.555309 (-0.156435, -0.987688)
726: 4.561593 (-0.150226, -0.988652)
727: 4.567876 (-0.144011, -0.989576)
728: 4.574159 (-0.137791, -0.990461)
729: 4.580442 (-0.131564, -0.991308)
730: 4.586725 (-0.125333, -0.992115)
731: 4.593009 (-0.119097, -0.992883)
732: 4.599292 (-0.112856, -0.993611)
733: 4.605575 (-0.106611, -0.994301)
734: 4.611858 (-0.100362, -0.994951)
735: 4.618141 (-0.094108, -0.995562)
736: 4.624424 (-0.087851, -0.996134)
737: 4.630708 (-0.081590, -0.996666)
738: 4.636991 (-0.075327, -0.997159)
739: 4.643274 (-0.069060, -0.997612)
740: 4.649557 (-0.062791, -0.998027)
741: 4.655840 (-0.056518, -0.998402)
742: 4.662124 (-0.050244, -0.998737)
743: 4.668406 (-0.043968, -0.999033)
744: 4.674690 (-0.037690, -0.999289)
745: 4.680973 (-0.031411, -0.999507)
746: 4.687256 (-0.025130, -0.999684)
747: 4.693540 (-0.018848, -0.999822)
748: 4.699822 (-0.012566, -0.999921)
749: 4.706106 (-0.006283, -0.999980)
750: 4.712389 (0.000000, -1.000000)
751: 4.718672 (0.006283, -0.999980)
752: 4.724956 (0.012566, -0.999921)
753: 4.731238 (0.018848, -0.999822)
754: 4.737522 (0.025130, -0.999684)
755: 4.743805 (0.031411, -0.999507)
756: 4.750088 (0.037690, -0.999289)
757: 4.756371 (0.043968, -0.999033)
758: 4.762654 (0.050244, -0.998737)
759: 4.768938 (0.056518, -0.998402)
760: 4.775221 (0.062791, -0.998027)
761: 4.781504 (0.069060, -0.997612)
762: 4.787787 (0.075327, -0.997159)
763: 4.794070 (0.081590, -0.996666)
764: 4.800354 (0.087851, -0.996134)
765: 4.806637 (0.094108, -0.995562)
766: 4.812920 (0.100362, -0.994951)
767: 4.819203 (0.106611, -0.994301)
768: 4.825486 (0.112856, -0.993611)
769: 4.831769 (0.119097, -0.992883)
770: 4.838053 (0.125333, -0.992115)
771: 4.844336 (0.131565, -0.991308)
772: 4.850619 (0.137790, -0.990461)
773: 4.856902 (0.144011, -0.989576)
774: 4.863185 (0.150226, -0.988652)
775: 4.869469 (0.156435, -0.987688)
776: 4.875752 (0.162637, -0.986686)
777: 4.882035 (0.168833, -0.985645)
778: 4.888318 (0.175023, -0.984564)
779: 4.894601 (0.181206, -0.983445)
780: 4.900885 (0.187381, -0.982287)
781: 4.907168 (0.193550, -0.981090)
782: 4.913451 (0.199710, -0.979855)
783: 4.919734 (0.205863, -0.978581)
784: 4.926017 (0.212007, -0.977268)
785: 4.932301 (0.218143, -0.975917)
786: 4.938584 (0.224271, -0.974527)
787: 4.944867 (0.230389, -0.973099)
788: 4.951150 (0.236499, -0.971632)
789: 4.957433 (0.242599, -0.970127)
790: 4.963717 (0.248690, -0.968583)
791: 4.970000 (0.254771, -0.967001)
792: 4.976283 (0.260841, -0.965382)
793: 4.982566 (0.266902, -0.963724)
794: 4.988849 (0.272952, -0.962028)
795: 4.995132 (0.278991, -0.960294)
796: 5.001416 (0.285019, -0.958522)
797: 5.007699 (0.291036, -0.956712)
798: 5.013982 (0.297042, -0.954865)
799: 5.020265 (0.303035, -0.952979)
800: 5.026548 (0.309017, -0.951056)
801: 5.032832 (0.314987, -0.949096)
802: 5.039114 (0.320943, -0.947098)
803: 5.045398 (0.326888, -0.945063)
804: 5.051681 (0.332820, -0.942991)
805: 5.057964 (0.338738, -0.940881)
806: 5.064247 (0.344643, -0.938734)
807: 5.070530 (0.350534, -0.936550)
808: 5.076814 (0.356412, -0.934329)
809: 5.083097 (0.362275, -0.932071)
810: 5.089380 (0.368125, -0.929776)
811: 5.095663 (0.373959, -0.927445)
812: 5.101946 (0.379779, -0.925077)
813: 5.108230 (0.385584, -0.922673)
814: 5.114513 (0.391374, -0.920232)
815: 5.120796 (0.397148, -0.917755)
816: 5.127079 (0.402906, -0.915241)
817: 5.133362 (0.408649, -0.912692)
818: 5.139646 (0.414376, -0.910106)
819: 5.145929 (0.420086, -0.907484)
820: 5.152212 (0.425779, -0.904827)
821: 5.158495 (0.431456, -0.902134)
822: 5.164778 (0.437116, -0.899405)
823: 5.171062 (0.442758, -0.896641)
824: 5.177345 (0.448383, -0.893841)
825: 5.183628 (0.453991, -0.891006)
826: 5.189911 (0.459580, -0.888137)
827: 5.196194 (0.465151, -0.885231)
828: 5.202477 (0.470704, -0.882291)
829: 5.208761 (0.476238, -0.879316)
830: 5.215044 (0.481754, -0.876307)
831: 5.221327 (0.487250, -0.873263)
832: 5.227610 (0.492727, -0.870184)
833: 5.233893 (0.498185, -0.867071)
834: 5.240177 (0.503623, -0.863923)
835: 5.246460 (0.509042, -0.860742)
836: 5.252743 (0.514439, -0.857527)
837: 5.259026 (0.519817, -0.854277)
838: 5.265309 (0.525175, -0.850994)
839: 5.271593 (0.530511, -0.847678)
840: 5.277875 (0.535827, -0.844328)
841: 5.284159 (0.541121, -0.840945)
842: 5.290442 (0.546394, -0.837528)
843: 5.296725 (0.551646, -0.834078)
844: 5.303009 (0.556876, -0.830596)
845: 5.309291 (0.562083, -0.827081)
846: 5.315575 (0.567269, -0.823533)
847: 5.321858 (0.572432, -0.819952)
848: 5.328141 (0.577573, -0.816339)
849: 5.334424 (0.582691, -0.812694)
850: 5.340707 (0.587785, -0.809017)
851: 5.346991 (0.592857, -0.805308)
852: 5.353274 (0.597905, -0.801567)
853: 5.359557 (0.602930, -0.797794)
854: 5.365840 (0.607930, -0.793990)
855: 5.372123 (0.612907, -0.790155)
856: 5.378407 (0.617860, -0.786288)
857: 5.384690 (0.622788, -0.782391)
858: 5.390973 (0.627691, -0.778462)
859: 5.397256 (0.632570, -0.774503)
860: 5.403539 (0.637424, -0.770513)
861: 5.409822 (0.642253, -0.766493)
862: 5.416106 (0.647056, -0.762443)
863: 5.422389 (0.651834, -0.758362)
864: 5.428672 (0.656586, -0.754251)
865: 5.434955 (0.661312, -0.750111)
866: 5.441238 (0.666012, -0.745941)
867: 5.447522 (0.670686, -0.741742)
868: 5.453805 (0.675333, -0.737513)
869: 5.460088 (0.679954, -0.733255)
870: 5.466371 (0.684547, -0.728969)
871: 5.472654 (0.689114, -0.724653)
872: 5.478938 (0.693653, -0.720309)
873: 5.485221 (0.698166, -0.715936)
874: 5.491504 (0.702650, -0.711536)
875: 5.497787 (0.707107, -0.707107)
876: 5.504070 (0.711536, -0.702650)
877: 5.510354 (0.715937, -0.698165)
878: 5.516637 (0.720309, -0.693653)
879: 5.522920 (0.724653, -0.689114)
880: 5.529203 (0.728969, -0.684547)
881: 5.535486 (0.733255, -0.679953)
882: 5.541770 (0.737513, -0.675333)
883: 5.548053 (0.741742, -0.670685)
884: 5.554336 (0.745941, -0.666012)
885: 5.560619 (0.750111, -0.661312)
886: 5.566902 (0.754251, -0.656586)
887: 5.573185 (0.758362, -0.651834)
888: 5.579469 (0.762443, -0.647056)
889: 5.585752 (0.766493, -0.642253)
890: 5.592035 (0.770513, -0.637424)
891: 5.598318 (0.774503, -0.632570)
892: 5.604601 (0.778462, -0.627691)
893: 5.610885 (0.782391, -0.622788)
894: 5.617167 (0.786288, -0.617860)
895: 5.623451 (0.790155, -0.612907)
896: 5.629734 (0.793990, -0.607930)
897: 5.636017 (0.797795, -0.602929)
898: 5.642301 (0.801567, -0.597905)
899: 5.648583 (0.805308, -0.592857)
900: 5.654867 (0.809017, -0.587785)
901: 5.661150 (0.812694, -0.582690)
902: 5.667433 (0.816339, -0.577573)
903: 5.673717 (0.819952, -0.572432)
904: 5.679999 (0.823533, -0.567269)
905: 5.686283 (0.827081, -0.562083)
906: 5.692566 (0.830596, -0.556876)
907: 5.698849 (0.834078, -0.551646)
908: 5.705132 (0.837528, -0.546394)
909: 5.711415 (0.840945, -0.541121)
910: 5.717699 (0.844328, -0.535827)
911: 5.723982 (0.847678, -0.530511)
912: 5.730265 (0.850995, -0.525174)
913: 5.736548 (0.854278, -0.519817)
914: 5.742831 (0.857527, -0.514440)
915: 5.749115 (0.860742, -0.509041)
916: 5.755398 (0.863923, -0.503623)
917: 5.761681 (0.867071, -0.498185)
918: 5.767964 (0.870184, -0.492728)
919: 5.774247 (0.873262, -0.487250)
920: 5.780530 (0.876307, -0.481754)
921: 5.786814 (0.879316, -0.476238)
922: 5.793097 (0.882291, -0.470704)
923: 5.799380 (0.885231, -0.465151)
924: 5.805663 (0.888136, -0.459580)
925: 5.811946 (0.891007, -0.453991)
926: 5.818230 (0.893841, -0.448383)
927: 5.824513 (0.896641, -0.442758)
928: 5.830796 (0.899405, -0.437116)
929: 5.837079 (0.902134, -0.431456)
930: 5.843362 (0.904827, -0.425779)
931: 5.849646 (0.907484, -0.420086)
932: 5.855929 (0.910106, -0.414375)
933: 5.862212 (0.912692, -0.408649)
934: 5.868495 (0.915241, -0.402907)
935: 5.874778 (0.917755, -0.397148)
936: 5.881062 (0.920232, -0.391374)
937: 5.887345 (0.922673, -0.385584)
938: 5.893628 (0.925077, -0.379779)
939: 5.899911 (0.927445, -0.373959)
940: 5.906194 (0.929776, -0.368125)
941: 5.912477 (0.932071, -0.362275)
942: 5.918761 (0.934329, -0.356412)
943: 5.925044 (0.936550, -0.350534)
944: 5.931327 (0.938734, -0.344643)
945: 5.937610 (0.940881, -0.338738)
946: 5.943893 (0.942991, -0.332819)
947: 5.950177 (0.945063, -0.326888)
948: 5.956460 (0.947098, -0.320944)
949: 5.962743 (0.949096, -0.314987)
950: 5.969026 (0.951057, -0.309017)
951: 5.975309 (0.952979, -0.303035)
952: 5.981592 (0.954865, -0.297042)
953: 5.987875 (0.956712, -0.291036)
954: 5.994159 (0.958522, -0.285019)
955: 6.000442 (0.960294, -0.278991)
956: 6.006725 (0.962028, -0.272952)
957: 6.013008 (0.963724, -0.266902)
958: 6.019291 (0.965382, -0.260842)
959: 6.025575 (0.967001, -0.254771)
960: 6.031858 (0.968583, -0.248690)
961: 6.038141 (0.970127, -0.242599)
962: 6.044424 (0.971632, -0.236499)
963: 6.050707 (0.973098, -0.230390)
964: 6.056991 (0.974527, -0.224271)
965: 6.063274 (0.975917, -0.218143)
966: 6.069557 (0.977268, -0.212007)
967: 6.075840 (0.978581, -0.205863)
968: 6.082123 (0.979855, -0.199710)
969: 6.088407 (0.981091, -0.193549)
970: 6.094690 (0.982287, -0.187381)
971: 6.100973 (0.983445, -0.181206)
972: 6.107256 (0.984564, -0.175023)
973: 6.113539 (0.985645, -0.168834)
974: 6.119823 (0.986686, -0.162637)
975: 6.126106 (0.987688, -0.156434)
976: 6.132389 (0.988652, -0.150225)
977: 6.138672 (0.989576, -0.144011)
978: 6.144955 (0.990461, -0.137790)
979: 6.151238 (0.991308, -0.131564)
980: 6.157522 (0.992115, -0.125333)
981: 6.163805 (0.992883, -0.119097)
982: 6.170088 (0.993611, -0.112857)
983: 6.176371 (0.994301, -0.106611)
984: 6.182654 (0.994951, -0.100362)
985: 6.188938 (0.995562, -0.094108)
986: 6.195221 (0.996134, -0.087851)
987: 6.201504 (0.996666, -0.081591)
988: 6.207787 (0.997159, -0.075327)
989: 6.214070 (0.997613, -0.069060)
990: 6.220354 (0.998027, -0.062790)
991: 6.226636 (0.998402, -0.056519)
992: 6.232920 (0.998737, -0.050244)
993: 6.239203 (0.999033, -0.043968)
994: 6.245486 (0.999289, -0.037690)
995: 6.251770 (0.999507, -0.031411)
996: 6.258052 (0.999684, -0.025130)
997: 6.264336 (0.999822, -0.018849)
998: 6.270619 (0.999921, -0.012566)
999: 6.276902 (0.999980, -0.006283)
Closing log file.